{
	"templates": [
		{
			"name": "loop",
			"type": "loop",
			"value": {
				"inits": {
					"${this.input.counter}": "0"
				},
				"whileCondition": "${this.input.counter} < ${template.params.count}",
				"iterators": { 
					"${this.input.counter}": "${this.input.counter} + 1" 
				}
			}
		}
	]
}
